{
	"log": {
		"version": "1.2",
		"creator": {
			"name": "Insomnia REST Client",
			"version": "insomnia.desktop.app:v2021.4.0"
		},
		"entries": [
			{
				"startedDateTime": "2021-07-05T01:42:23.776Z",
				"time": 222.978,
				"request": {
					"method": "GET",
					"url": "http://localhost:3333/posts?page=4",
					"httpVersion": "HTTP/1.1",
					"cookies": [],
					"headers": [],
					"queryString": [],
					"postData": {
						"mimeType": "",
						"text": "",
						"params": []
					},
					"headersSize": -1,
					"bodySize": -1,
					"settingEncodeUrl": true
				},
				"response": {
					"status": 200,
					"statusText": "OK",
					"httpVersion": "HTTP/1.1",
					"cookies": [],
					"headers": [
						{
							"name": "content-length",
							"value": "197"
						},
						{
							"name": "content-type",
							"value": "application/json; charset=utf-8"
						},
						{
							"name": "Date",
							"value": "Mon, 05 Jul 2021 01:27:21 GMT"
						},
						{
							"name": "Connection",
							"value": "keep-alive"
						},
						{
							"name": "Keep-Alive",
							"value": "timeout=5"
						}
					],
					"content": {
						"size": 197,
						"mimeType": "application/json; charset=utf-8",
						"text": "{\"meta\":{\"total\":12,\"per_page\":5,\"current_page\":4,\"last_page\":3,\"first_page\":1,\"first_page_url\":\"/?page=1\",\"last_page_url\":\"/?page=3\",\"next_page_url\":null,\"previous_page_url\":\"/?page=3\"},\"data\":[]}"
					},
					"redirectURL": "",
					"headersSize": -1,
					"bodySize": -1
				},
				"cache": {},
				"timings": {
					"blocked": -1,
					"dns": -1,
					"connect": -1,
					"send": 0,
					"wait": 222.978,
					"receive": 0,
					"ssl": -1
				},
				"comment": "Index"
			},
			{
				"startedDateTime": "2021-07-05T01:42:23.776Z",
				"time": 222.386,
				"request": {
					"method": "POST",
					"url": "http://localhost:3333/posts",
					"httpVersion": "HTTP/1.1",
					"cookies": [],
					"headers": [
						{
							"name": "Content-Type",
							"value": "application/json"
						}
					],
					"queryString": [],
					"postData": {
						"mimeType": "application/json",
						"text": "{\n\t\"title\":\"Teste de post d41d8cd98f00b204e9800998ecf8427e\",\n\t\"description\":\"Descrição do post 2 da39a3ee5e6b4b0d3255bfef95601890afd80709\"\n}",
						"params": []
					},
					"headersSize": -1,
					"bodySize": -1,
					"settingEncodeUrl": true
				},
				"response": {
					"status": 200,
					"statusText": "OK",
					"httpVersion": "HTTP/1.1",
					"cookies": [],
					"headers": [
						{
							"name": "content-length",
							"value": "235"
						},
						{
							"name": "content-type",
							"value": "application/json; charset=utf-8"
						},
						{
							"name": "Date",
							"value": "Mon, 05 Jul 2021 01:29:11 GMT"
						},
						{
							"name": "Connection",
							"value": "keep-alive"
						},
						{
							"name": "Keep-Alive",
							"value": "timeout=5"
						}
					],
					"content": {
						"size": 235,
						"mimeType": "application/json; charset=utf-8",
						"text": "{\"title\":\"Teste de post d41d8cd98f00b204e9800998ecf8427e\",\"description\":\"Descrição do post 2 da39a3ee5e6b4b0d3255bfef95601890afd80709\",\"created_at\":\"2021-07-04T22:29:11.533-03:00\",\"updated_at\":\"2021-07-04T22:29:11.533-03:00\",\"id\":14}"
					},
					"redirectURL": "",
					"headersSize": -1,
					"bodySize": -1
				},
				"cache": {},
				"timings": {
					"blocked": -1,
					"dns": -1,
					"connect": -1,
					"send": 0,
					"wait": 222.386,
					"receive": 0,
					"ssl": -1
				},
				"comment": "store"
			},
			{
				"startedDateTime": "2021-07-05T01:42:23.776Z",
				"time": 234.51500000000001,
				"request": {
					"method": "GET",
					"url": "http://localhost:3333/posts/1",
					"httpVersion": "HTTP/1.1",
					"cookies": [],
					"headers": [],
					"queryString": [],
					"postData": {
						"mimeType": "",
						"text": "",
						"params": []
					},
					"headersSize": -1,
					"bodySize": -1,
					"settingEncodeUrl": true
				},
				"response": {
					"status": 200,
					"statusText": "OK",
					"httpVersion": "HTTP/1.1",
					"cookies": [],
					"headers": [
						{
							"name": "content-length",
							"value": "158"
						},
						{
							"name": "content-type",
							"value": "application/json; charset=utf-8"
						},
						{
							"name": "Date",
							"value": "Mon, 05 Jul 2021 01:19:38 GMT"
						},
						{
							"name": "Connection",
							"value": "keep-alive"
						},
						{
							"name": "Keep-Alive",
							"value": "timeout=5"
						}
					],
					"content": {
						"size": 158,
						"mimeType": "application/json; charset=utf-8",
						"text": "{\"id\":1,\"title\":\"Teste de post\",\"description\":\"Descrição do post\",\"created_at\":\"2021-07-04T22:16:07.397-03:00\",\"updated_at\":\"2021-07-04T22:16:07.521-03:00\"}"
					},
					"redirectURL": "",
					"headersSize": -1,
					"bodySize": -1
				},
				"cache": {},
				"timings": {
					"blocked": -1,
					"dns": -1,
					"connect": -1,
					"send": 0,
					"wait": 234.51500000000001,
					"receive": 0,
					"ssl": -1
				},
				"comment": "show"
			},
			{
				"startedDateTime": "2021-07-05T01:42:23.776Z",
				"time": 59.853,
				"request": {
					"method": "PUT",
					"url": "http://localhost:3333/posts/1",
					"httpVersion": "HTTP/1.1",
					"cookies": [],
					"headers": [
						{
							"name": "Content-Type",
							"value": "application/json"
						}
					],
					"queryString": [],
					"postData": {
						"mimeType": "application/json",
						"text": "{\n\t\"title\":\"Teste de post alterada\",\n\t\"description\":\"Descrição do post alterada\"\n}",
						"params": []
					},
					"headersSize": -1,
					"bodySize": -1,
					"settingEncodeUrl": true
				},
				"response": {
					"status": 200,
					"statusText": "OK",
					"httpVersion": "HTTP/1.1",
					"cookies": [],
					"headers": [
						{
							"name": "content-length",
							"value": "176"
						},
						{
							"name": "content-type",
							"value": "application/json; charset=utf-8"
						},
						{
							"name": "Date",
							"value": "Mon, 05 Jul 2021 01:24:19 GMT"
						},
						{
							"name": "Connection",
							"value": "keep-alive"
						},
						{
							"name": "Keep-Alive",
							"value": "timeout=5"
						}
					],
					"content": {
						"size": 176,
						"mimeType": "application/json; charset=utf-8",
						"text": "{\"id\":1,\"title\":\"Teste de post alterada\",\"description\":\"Descrição do post alterada\",\"created_at\":\"2021-07-04T22:16:07.397-03:00\",\"updated_at\":\"2021-07-04T22:24:18.992-03:00\"}"
					},
					"redirectURL": "",
					"headersSize": -1,
					"bodySize": -1
				},
				"cache": {},
				"timings": {
					"blocked": -1,
					"dns": -1,
					"connect": -1,
					"send": 0,
					"wait": 59.853,
					"receive": 0,
					"ssl": -1
				},
				"comment": "update"
			},
			{
				"startedDateTime": "2021-07-05T01:42:23.776Z",
				"time": 211.564,
				"request": {
					"method": "DELETE",
					"url": "http://localhost:3333/posts/14",
					"httpVersion": "HTTP/1.1",
					"cookies": [],
					"headers": [],
					"queryString": [],
					"postData": {
						"mimeType": "",
						"text": "",
						"params": []
					},
					"headersSize": -1,
					"bodySize": -1,
					"settingEncodeUrl": true
				},
				"response": {
					"status": 200,
					"statusText": "OK",
					"httpVersion": "HTTP/1.1",
					"cookies": [],
					"headers": [
						{
							"name": "content-length",
							"value": "235"
						},
						{
							"name": "content-type",
							"value": "application/json; charset=utf-8"
						},
						{
							"name": "Date",
							"value": "Mon, 05 Jul 2021 01:29:17 GMT"
						},
						{
							"name": "Connection",
							"value": "keep-alive"
						},
						{
							"name": "Keep-Alive",
							"value": "timeout=5"
						}
					],
					"content": {
						"size": 235,
						"mimeType": "application/json; charset=utf-8",
						"text": "{\"id\":14,\"title\":\"Teste de post d41d8cd98f00b204e9800998ecf8427e\",\"description\":\"Descrição do post 2 da39a3ee5e6b4b0d3255bfef95601890afd80709\",\"created_at\":\"2021-07-04T22:29:11.533-03:00\",\"updated_at\":\"2021-07-04T22:29:11.533-03:00\"}"
					},
					"redirectURL": "",
					"headersSize": -1,
					"bodySize": -1
				},
				"cache": {},
				"timings": {
					"blocked": -1,
					"dns": -1,
					"connect": -1,
					"send": 0,
					"wait": 211.564,
					"receive": 0,
					"ssl": -1
				},
				"comment": "destroy"
			}
		]
	}
}